digraph {

subgraph cluster_ingress {          // perrepo
    label="Apiserver Loadbalancer"; // perrepo
    color=grey;                     // perrepo

    api_lb         [color=chocolate, style=filled, label="Loadbalancer Pods\nscheduled on master nodes"]
    api_lb_cronjob [color=chocolate, style=filled, label="Cleanup Cronjob"]
} // perrepo

    api_lb_cronjob -> cloudflare [label="removes DNS entries\nof unresponsive IPs"]
    api_lb -> cloudflare         [label="add and removes Node IP\nfrom loadbalancer subdomain"]
}